E:\EclipseWorkspace\Vistarooms\src\main\java\com\vistarooms\main\BaseTest.java
E:\EclipseWorkspace\Vistarooms\src\main\java\com\vistarooms\utils\GenericUtils.java
E:\EclipseWorkspace\Vistarooms\src\main\java\com\vistarooms\utils\ExcelUtils.java
E:\EclipseWorkspace\Vistarooms\src\main\java\com\vistarooms\page\VistaHomePage.java
E:\EclipseWorkspace\Vistarooms\src\main\java\com\vistarooms\page\LoginPage.java
E:\EclipseWorkspace\Vistarooms\src\main\java\com\vistarooms\main\DriverFactory.java
